^C:\USERS\NIKLAUS.BAIR\DOCUMENTS\PHYSICSSYSTEMDEMO\DEBUG\COMPONENT.OBJ|C:\USERS\NIKLAUS.BAIR\DOCUMENTS\PHYSICSSYSTEMDEMO\DEBUG\PHYSICSCOMPONENT.OBJ|C:\USERS\NIKLAUS.BAIR\DOCUMENTS\PHYSICSSYSTEMDEMO\DEBUG\PHYSICSSYSTEMDEMO.OBJ|C:\USERS\NIKLAUS.BAIR\DOCUMENTS\PHYSICSSYSTEMDEMO\DEBUG\TRANSFORMCOMPONENT.OBJ|C:\USERS\NIKLAUS.BAIR\DOCUMENTS\PHYSICSSYSTEMDEMO\DEBUG\VECTOR3.OBJ
C:\USERS\NIKLAUS.BAIR\DOCUMENTS\PHYSICSSYSTEMDEMO\DEBUG\PHYSICSSYSTEMDEMO.EXE
C:\USERS\NIKLAUS.BAIR\DOCUMENTS\PHYSICSSYSTEMDEMO\DEBUG\PHYSICSSYSTEMDEMO.ILK
C:\USERS\NIKLAUS.BAIR\DOCUMENTS\PHYSICSSYSTEMDEMO\DEBUG\PHYSICSSYSTEMDEMO.PDB
