^C:\SOFTWARE DEVELOPMENT\GAMEENGINESFA2019\PHYSICSSYSTEMDEMO\X64\DEBUG\COMPONENT.OBJ|C:\SOFTWARE DEVELOPMENT\GAMEENGINESFA2019\PHYSICSSYSTEMDEMO\X64\DEBUG\PHYSICSCOMPONENT.OBJ|C:\SOFTWARE DEVELOPMENT\GAMEENGINESFA2019\PHYSICSSYSTEMDEMO\X64\DEBUG\PHYSICSSYSTEMDEMO.OBJ|C:\SOFTWARE DEVELOPMENT\GAMEENGINESFA2019\PHYSICSSYSTEMDEMO\X64\DEBUG\TRANSFORMCOMPONENT.OBJ|C:\SOFTWARE DEVELOPMENT\GAMEENGINESFA2019\PHYSICSSYSTEMDEMO\X64\DEBUG\VECTOR3.OBJ
/OUT:"C:\SOFTWARE DEVELOPMENT\GAMEENGINESFA2019\PHYSICSSYSTEMDEMO\X64\DEBUG\PHYSICSSYSTEMDEMO.EXE" /INCREMENTAL /NOLOGO KERNEL32.LIB USER32.LIB GDI32.LIB WINSPOOL.LIB COMDLG32.LIB ADVAPI32.LIB SHELL32.LIB OLE32.LIB OLEAUT32.LIB UUID.LIB ODBC32.LIB ODBCCP32.LIB /MANIFEST /MANIFESTUAC:"level='asInvoker' uiAccess='false'" /manifest:embed /DEBUG:FASTLINK /PDB:"C:\SOFTWARE DEVELOPMENT\GAMEENGINESFA2019\PHYSICSSYSTEMDEMO\X64\DEBUG\PHYSICSSYSTEMDEMO.PDB" /SUBSYSTEM:CONSOLE /TLBID:1 /DYNAMICBASE /NXCOMPAT /IMPLIB:"C:\SOFTWARE DEVELOPMENT\GAMEENGINESFA2019\PHYSICSSYSTEMDEMO\X64\DEBUG\PHYSICSSYSTEMDEMO.LIB" /MACHINE:X64 X64\DEBUG\COMPONENT.OBJX64\DEBUG\PHYSICSCOMPONENT.OBJX64\DEBUG\PHYSICSSYSTEMDEMO.OBJX64\DEBUG\TRANSFORMCOMPONENT.OBJX64\DEBUG\VECTOR3.OBJ
^C:\USERS\AUSTIN.LAIMOS\DOCUMENTS\GAME ENGINE\PHYSICSSYSTEMDEMO\X64\DEBUG\COMPONENT.OBJ|C:\USERS\AUSTIN.LAIMOS\DOCUMENTS\GAME ENGINE\PHYSICSSYSTEMDEMO\X64\DEBUG\PHYSICSCOMPONENT.OBJ|C:\USERS\AUSTIN.LAIMOS\DOCUMENTS\GAME ENGINE\PHYSICSSYSTEMDEMO\X64\DEBUG\PHYSICSSYSTEMDEMO.OBJ|C:\USERS\AUSTIN.LAIMOS\DOCUMENTS\GAME ENGINE\PHYSICSSYSTEMDEMO\X64\DEBUG\TRANSFORMCOMPONENT.OBJ|C:\USERS\AUSTIN.LAIMOS\DOCUMENTS\GAME ENGINE\PHYSICSSYSTEMDEMO\X64\DEBUG\VECTOR3.OBJ
/OUT:"C:\USERS\AUSTIN.LAIMOS\DOCUMENTS\GAME ENGINE\PHYSICSSYSTEMDEMO\X64\DEBUG\PHYSICSSYSTEMDEMO.EXE" /INCREMENTAL /NOLOGO /LIBPATH:"C:\USERS\AUSTIN.LAIMOS\DOCUMENTS\GAME ENGINE\VCPKG\INSTALLED\X64-WINDOWS\DEBUG\LIB" /LIBPATH:"C:\USERS\AUSTIN.LAIMOS\DOCUMENTS\GAME ENGINE\VCPKG\INSTALLED\X64-WINDOWS\DEBUG\LIB\MANUAL-LINK" KERNEL32.LIB USER32.LIB GDI32.LIB WINSPOOL.LIB COMDLG32.LIB ADVAPI32.LIB SHELL32.LIB OLE32.LIB OLEAUT32.LIB UUID.LIB ODBC32.LIB ODBCCP32.LIB "C:\USERS\AUSTIN.LAIMOS\DOCUMENTS\GAME ENGINE\VCPKG\INSTALLED\X64-WINDOWS\DEBUG\LIB\*.LIB" /MANIFEST /MANIFESTUAC:"level='asInvoker' uiAccess='false'" /manifest:embed /DEBUG:FASTLINK /PDB:"C:\USERS\AUSTIN.LAIMOS\DOCUMENTS\GAME ENGINE\PHYSICSSYSTEMDEMO\X64\DEBUG\PHYSICSSYSTEMDEMO.PDB" /SUBSYSTEM:CONSOLE /TLBID:1 /DYNAMICBASE /NXCOMPAT /IMPLIB:"C:\USERS\AUSTIN.LAIMOS\DOCUMENTS\GAME ENGINE\PHYSICSSYSTEMDEMO\X64\DEBUG\PHYSICSSYSTEMDEMO.LIB" /MACHINE:X64 X64\DEBUG\COMPONENT.OBJX64\DEBUG\PHYSICSCOMPONENT.OBJX64\DEBUG\PHYSICSSYSTEMDEMO.OBJX64\DEBUG\TRANSFORMCOMPONENT.OBJX64\DEBUG\VECTOR3.OBJ
